%YAML 1.1
%TAG !u! tag:unity3d.com,2011:
--- !u!162 &1
EditorUserSettings:
  m_ObjectHideFlags: 0
  serializedVersion: 4
  m_ConfigSettings:
    RecentlyUsedSceneGuid-0:
      value: 5a5757560101590a5d0c0e24427b5d44434e4c7a7b7a23677f2b4565b7b5353a
      flags: 0
    RecentlyUsedSceneGuid-1:
      value: 5200055107005f5d5e080d7245250d4444161a2c7c7a27652e70486be1e56068
      flags: 0
    RecentlyUsedSceneGuid-2:
      value: 5509020251545d0c0e5c582341755a444e151b7d7a787f627e2a4467b5b66469
      flags: 0
    RecentlyUsedSceneGuid-3:
      value: 0504045050515f0f090a5a7a167b0e44424f197d757f70362c714e35e6e26d3c
      flags: 0
    RecentlyUsedScenePath-0:
      value: 22424703114646680e0b0227036c6c111b07142f1f2b233e2867083debf42d
      flags: 0
    RecentlyUsedScenePath-1:
      value: 22424703114646680e0b0227036c78111b12563f22213229
      flags: 0
    RecentlyUsedScenePath-2:
      value: 22424703114646680e0b0227036c72111f19352f223d68252320092a
      flags: 0
    RecentlyUsedScenePath-3:
      value: 22424703114646760800196d3d22561e3b12163f623d28393930
      flags: 0
    RecentlyUsedScenePath-4:
      value: 224247031146467c0c03096d37225215580216233831
      flags: 0
    RecentlyUsedScenePath-5:
      value: 224247031146467608001969202b5004191957020805233e3867083debf42d
      flags: 0
    RecentlyUsedScenePath-6:
      value: 224247031146467608001969202b5004191957072d21281d2827087df7ee3d2cfb
      flags: 0
    RecentlyUsedScenePath-7:
      value: 224247031146467608001969202b500419195707232c23222304183df7ae2136ebf32f
      flags: 0
    RecentlyUsedScenePath-8:
      value: 224247031146467608001969202b50041919571c2d262f3c21283036ecf57a2decee22f0
      flags: 0
    RecentlyUsedScenePath-9:
      value: 224247031146467608001969202b5004191957072926337e38271427fb
      flags: 0
    vcSharedLogLevel:
      value: 0d5e400f0650
      flags: 0
  m_VCAutomaticAdd: 1
  m_VCDebugCom: 0
  m_VCDebugCmd: 0
  m_VCDebugOut: 0
  m_SemanticMergeMode: 2
  m_DesiredImportWorkerCount: 1
  m_StandbyImportWorkerCount: 1
  m_IdleImportWorkerShutdownDelay: 60000
  m_VCShowFailedCheckout: 1
  m_VCOverwriteFailedCheckoutAssets: 1
  m_VCProjectOverlayIcons: 1
  m_VCHierarchyOverlayIcons: 1
  m_VCOtherOverlayIcons: 1
  m_VCAllowAsyncUpdate: 1
  m_ArtifactGarbageCollection: 1
